{
  "project_info": {
    "project_number": "226154147311",
    "firebase_url": "https://phone-cf621.firebaseio.com",
    "project_id": "phone-cf621",
    "storage_bucket": "phone-cf621.appspot.com"
  },
  "client": [
    {
      "client_info": {
        "mobilesdk_app_id": "1:226154147311:android:62bff90602b7a61a5bda1a",
        "android_client_info": {
          "package_name": "com.krd.mini_project2"
        }
      },
      "oauth_client": [
        {
          "client_id": "226154147311-60mc0js8n7tlg66f21cob1423dpr3cvp.apps.googleusercontent.com",
          "client_type": 1,
          "android_info": {
            "package_name": "com.krd.mini_project2",
            "certificate_hash": "c71ebdf050a7b0bbac805fadb76e8eed20a98ef0"
          }
        },
        {
          "client_id": "226154147311-unajilifdgg1tp5fou6pukei656l5gks.apps.googleusercontent.com",
          "client_type": 3
        }
      ],
      "api_key": [
        {
          "current_key": "AIzaSyD92pCQ1bn3Mhr_iKtZPzCwnb6ele04Bak"
        }
      ],
      "services": {
        "appinvite_service": {
          "other_platform_oauth_client": [
            {
              "client_id": "226154147311-unajilifdgg1tp5fou6pukei656l5gks.apps.googleusercontent.com",
              "client_type": 3
            }
          ]
        }
      }
    },
    {
      "client_info": {
        "mobilesdk_app_id": "1:226154147311:android:8151fe702ce3cac55bda1a",
        "android_client_info": {
          "package_name": "com.krd.phone"
        }
      },
      "oauth_client": [
        {
          "client_id": "226154147311-3ufikjpgigdpr6biq80d6fagfin0o6hj.apps.googleusercontent.com",
          "client_type": 1,
          "android_info": {
            "package_name": "com.krd.phone",
            "certificate_hash": "c71ebdf050a7b0bbac805fadb76e8eed20a98ef0"
          }
        },
        {
          "client_id": "226154147311-unajilifdgg1tp5fou6pukei656l5gks.apps.googleusercontent.com",
          "client_type": 3
        }
      ],
      "api_key": [
        {
          "current_key": "AIzaSyD92pCQ1bn3Mhr_iKtZPzCwnb6ele04Bak"
        }
      ],
      "services": {
        "appinvite_service": {
          "other_platform_oauth_client": [
            {
              "client_id": "226154147311-unajilifdgg1tp5fou6pukei656l5gks.apps.googleusercontent.com",
              "client_type": 3
            }
          ]
        }
      }
    }
  ],
  "configuration_version": "1"
}